{
  "eslint.packageManager": "yarn",
  "eslint.nodePath": ".yarn/sdks",
  "workspace.workspaceFolderCheckCwd": false,
  "tsserver.tsdk": ".yarn/sdks/typescript/lib",
  "typescript.preferences.quoteStyle": "single",
  "typescript.format.insertSpaceAfterOpeningAndBeforeClosingNonemptyBraces": true
}
